{
"key":"V1Zpc3VxTzVoVDdyc2RnSm9RWGNJcVdTODd4NG9mZVN5Z2YxVzROdk9sSWt2ZG52bUtCRUFOSmxReDRYdURLVA==",
"secret":"a1lFNHlqU1ZjNFgxaUcxU1I1Rk5SMGFJdUtsNjlOVjcwQWZnaFpFM3laeFZ6dzkzNHA3eWZBUktRQkNVOVlpaA=="
}
