{
"key":"dDd3cXJMUGFPNnFTTjViUno0eGs0RXhHZWMwUTVFNURCWEp6N0JVcFZld3RRQW02d2RTQTd0QTZndjFBSUZGUQ==",
"secret":"Qmd0aVFBaUhwTkg4RTRCd3p2ZmJpUkhIaUJjdFUwaEpjNmpuRUJvcGpnRGJod095Um9kSmNuOWpwTlFGV0c0Nw=="
}
