{
"key":"dlpQcVgyV3VhYTcwWnFYa21MRFpLNUxGOHVibjRMZ0FYSDdpVW1ScVY2WVEzRDhndkc4YW9vcnpXNVpzYTFVZA==",
"secret":"ZDFkS0J6MW9QNGlLUlB0U250ZGF6M3M3Z3hSOW13TmN2MjY5R25TeXc4WDJxdWlBemFwa01CRUhmdEgwRHBQSg=="
}
