{
"key":"YkdjOFVuc3BnaU5pTGVTb3ZETE5WREtnanJianpVdmxRQ3FndDN4WXJZajhOU0xrVkg5WGdJTTZNQUdLZzk1Ng==",
"secret":"TEtqWWRrZUtpYTE5aFhHanFqaGlVNFJpQjRZYzNuVEF2TTFzQ1JvSzBRelduZEJlWWVtMWRLTWlSZkttdUYxcA=="
}
