{
"key":"ZXlKaGJHY2lPaUpJVXpJMU5pSXNJblI1Y0NJNklrcFhWQ0o5LmV5SnBaQ0k2SWpWaVpXTTBOekZqWWpRM016SXlNREUyTkRVM1pUbGxaaUlzSW1saGRDSTZNVFUwTXpVNE5qVXhNaXdpWlhod0lqb3hNVEF4TURnMk5qVXhNbjAuX0s2Wm1hZmJJdld2UHFXR3JoRXV1WnhZU1pIZDB0Tl9sRzhzZ3I5TkphZw=="
}
