{
"key":"OWlpZXE5elV5N3NoaEFnWGViSHh6OXpHS0lNWUFzTE1FUExySWRjYTF1QkVoSms1WjNZZzlQVUdsT0ZBVEVEUQ==",
"secret":"MlJ6SDNHMFhJdkE0YXl4SEN5RVFXaEJkYzJyU3BIN1FFMDJ4TDJZV0FZQm81NzFQVG1sSEtqYzFweFdVWmZOSA=="
}
