{
"key":"REVJVmpKQmIyZkVzcUFyMXYxQ2Vla3V3clBNTTIxY1c2U0g1M2VLZTdGTUViaERqZFJOeENzU0lqSTI2R1M1WA==",
"secret":"T3B0SWdBYk56MGtySjJNWWxsc0dCSEg5d3V5U2ZQQnBzbkdvTHhGajNoQ05TcTFkdHQ4bGRRYmR0dzZVanlsNg=="
}
